{
  "name": "ngn-serverless-slideshow",
  "version": 2,
  "alias": [
    "ngn-serverless-slideshow",
    "slideshow.serverless.ngn.binaryweb.dev"
  ],
  "scope": "bws",
  "builds": [
    {
      "src": "**",
      "use": "@now/static"
    }
  ]
}
